Selection Processes in Networks
…
---

# Loading, setting up

```r
library(tidyverse)
library(here)

d <- read_csv(here("data", "modality-data.csv"))

d
```

```
## # A tibble: 284 × 5
##    sender receiver weight mode_sender mode_receiver
##     <dbl>    <dbl>  <dbl> <chr>       <chr>        
##  1  13101    13107   10   hybrid      hybrid       
##  2  13101    12102    6.4 hybrid      hybrid       
##  3  13101    16207    8.1 hybrid      online       
##  4  13107    13101    6.4 hybrid      hybrid       
##  5  13107    13110    8.1 hybrid      hybrid       
##  6  13107    14103    2.5 hybrid      online       
##  7  13107    13109   10   hybrid      hybrid       
##  8  13107    11101    4.9 hybrid      <NA>         
##  9  13107    11104    1.6 hybrid      <NA>         
## 10  13107    14102    3.6 hybrid      hybrid       
## # … with 274 more rows
```
…
