SNA Case Study: Birds of a Feather Lead Together
…
To do so, we’ll need to import two Excel files from the Social Network Analysis and Education companion site. The first file contains our edges stored as a square matrix (more on this later) and the second file is a standard rectangular data frame that contains attributes for each node, i.e. school leaders. These files are included in the data folder of your R Studio project. A description of each file from the companion website is linked above and each data file is linked below:

School Leaders Data Chapter 9_d. This adjacency matrix reports on “confidential help” ties among 43 school leaders in year 3 of a three-year study. This is a directed valued (weighted) network measured on five-point scale ranging from 0 to 4, with higher values indicating more frequent collaborations (1–2 times/week). These data are used throughout Chapter 9.

School Leaders Data Chapter 9_e. This rectangular matrix consists of four attribute vectors for 43 school leaders. Following the first ID column, the matrix includes an efficacy score, trust score, and indicators for whether one works at the district-level and is male (1 = yes, 0 = no). These attribute variables will be used as covariates in our ERGMs later in this walkthrough.

Since we are working with Excel files, we’ll need to use the read_excel() function from {readxl} tidyverse package to import our data. Let’s import the School Leaders Data Chapter 9_e.xlsx node file located in the data/ folder first:

leader_nodes <- read_excel("data/School Leaders Data Chapter 9_e.xlsx", 
                           col_types = c("text", "numeric", "numeric", "numeric", "numeric")) |>
  clean_names()

leader_nodes

# A tibble: 43 × 5
   id    efficacy trust district_site  male
   <chr>    <dbl> <dbl>         <dbl> <dbl>
 1 1         6.06  4                1     0
 2 2         6.56  5.63             1     0
 3 3         7.39  4.63             1     0
 4 4         4.89  4                1     0
 5 5         6.06  5.75             0     1
 6 6         7.39  4.38             0     0
 7 7         5.56  3.63             0     1
 8 8         7.5   5.63             1     1
 9 9         7.67  5.25             0     0
10 10        6.64  4.78             0     0
# ℹ 33 more rows
…
Use the code chunk below to inspect the matrix you just imported and answer the questions that follow:

leader_matrix

# A tibble: 43 × 43
    ...1  ...2  ...3  ...4  ...5  ...6  ...7  ...8  ...9 ...10 ...11 ...12 ...13
   <dbl> <dbl> <dbl> <dbl> <dbl> <dbl> <dbl> <dbl> <dbl> <dbl> <dbl> <dbl> <dbl>
 1     0     0     0     0     0     0     0     0     0     0     0     0     0
 2     0     0     0     0     0     0     0     0     0     0     0     0     0
 3     3     1     0     1     1     1     1     2     1     1     1     1     1
 4     1     0     0     0     0     0     0     0     0     0     0     0     0
 5     0     0     0     0     0     0     1     0     3     0     0     0     0
 6     0     0     0     0     0     0     0     0     0     0     0     0     0
 7     2     1     1     1     1     1     4     1     1     3     1     1     1
 8     1     1     4     1     1     1     1     0     2     3     1     1     1
 9     1     0     0     0     4     0     0     1     0     0     0     0     0
10     1     1     3     1     1     1     4     4     1     0     3     1     1
# ℹ 33 more rows
# ℹ 30 more variables: ...14 <dbl>, ...15 <dbl>, ...16 <dbl>, ...17 <dbl>,
#   ...18 <dbl>, ...19 <dbl>, ...20 <dbl>, ...21 <dbl>, ...22 <dbl>,
#   ...23 <dbl>, ...24 <dbl>, ...25 <dbl>, ...26 <dbl>, ...27 <dbl>,
#   ...28 <dbl>, ...29 <dbl>, ...30 <dbl>, ...31 <dbl>, ...32 <dbl>,
#   ...33 <dbl>, ...34 <dbl>, ...35 <dbl>, ...36 <dbl>, ...37 <dbl>,
#   ...38 <dbl>, ...39 <dbl>, ...40 <dbl>, ...41 <dbl>, ...42 <dbl>, …
…
Summarize Node Measures

We can also use the activate() function combined with the as_tibble() function introduced in our previous Learning Lab to extract our new measures to a separate data frame we’ll call node_measures so we can inspect our nodes individually and later use to calculate some summary stats:

node_measures <- leader_measures |> 
  activate(nodes) |>
  as_tibble()

node_measures

# A tibble: 43 × 8
   id    efficacy trust district_site  male degree in_degree out_degree
   <chr>    <dbl> <dbl>         <dbl> <dbl>  <dbl>     <dbl>      <dbl>
 1 1         6.06  4                1     0      5         5          0
 2 2         6.56  5.63             1     0      1         1          0
 3 3         7.39  4.63             1     0     12         7          5
 4 4         4.89  4                1     0      6         2          4
 5 5         6.06  5.75             0     1      4         3          1
 6 6         7.39  4.38             0     0      1         1          0
 7 7         5.56  3.63             0     1      4         2          2
 8 8         7.5   5.63             1     1     15         8          7
 9 9         7.67  5.25             0     0      5         3          2
10 10        6.64  4.78             0     0     12         5          7
# ℹ 33 more rows
…
