A Tale of Two MOOCs
…
Comment_id = Unique identifier of a comment\

Let’s use the read_csv() function from the {readr} and {janitor} packages introduced in previous units to read in our edge-list and clean up the variables names:

dlt1_ties <- read_csv("data/dlt1-edges.csv", 
                      col_types = cols(Sender = col_character(), 
                                       Receiver = col_character(), 
                                       `Category Text` = col_skip(), 
                                       `Comment ID` = col_character(), 
                                       `Discussion ID` = col_character())) |>
  clean_names()

dlt1_ties

# A tibble: 2,529 × 9
   sender receiver timestamp    discussion_title             discussion_category
   <chr>  <chr>    <chr>        <chr>                        <chr>              
 1 360    444      4/4/13 16:32 Most important change for y… Group N            
 2 356    444      4/4/13 18:45 Most important change for y… Group D-L          
 3 356    444      4/4/13 18:47 DLT Resources—Comments and … Group D-L          
 4 344    444      4/4/13 18:55 Most important change for y… Group O-T          
 5 392    444      4/4/13 19:13 Most important change for y… Group U-Z          
 6 219    444      4/4/13 19:16 Most important change for y… Group M            
 7 318    444      4/4/13 19:26 Most important change for y… Group M            
 8 4      444      4/4/13 19:44 Most important change for y… Group N            
 9 355    356      4/4/13 20:12 DLT Resources—Comments and … Group D-L          
10 355    444      4/4/13 20:13 Most important change for y… Group D-L          
# ℹ 2,519 more rows
# ℹ 4 more variables: parent_category <chr>, discussion_identifier <chr>,
#   comment_id <chr>, discussion_id <chr>
…
👉 Your Turn ⤵

Now use the code chunk below to inspect the data you imported and complete the matching exercise that follows:

#YOUR CODE HERE

dlt1_actors

# A tibble: 445 × 13
   uid   facilitator role1 experience experience2 grades location region country
   <chr> <chr>       <chr>      <dbl> <chr>       <chr>  <chr>    <chr>  <chr>  
 1 1     0           libm…          1 6 to 10     secon… VA       South  US     
 2 2     0           clas…          1 6 to 10     secon… FL       South  US     
 3 3     0           dist…          2 11 to 20    gener… PA       North… US     
 4 4     0           clas…          2 11 to 20    middle NC       South  US     
 5 5     0           othe…          3 20+         gener… AL       South  US     
 6 6     0           clas…          1 4 to 5      gener… AL       South  US     
 7 7     0           inst…          2 11 to 20    gener… SD       Midwe… US     
 8 8     0           spec…          1 6 to 10     secon… BE       Inter… BE     
 9 9     0           clas…          1 6 to 10     middle NC       South  US     
10 10    0           scho…          2 11 to 20    middle NC       South  US     
# ℹ 435 more rows
# ℹ 4 more variables: group <chr>, gender <chr>, expert <chr>, connect <chr>
…
Let’s temporarily convert to a data frame so we can get a better look at our nodes and the measure of degree instead of local_size() that we just created.

dlt1_network |>
  as_tibble()

# A tibble: 445 × 14
   uid   facilitator role1 experience experience2 grades location region country
   <chr> <chr>       <chr>      <dbl> <chr>       <chr>  <chr>    <chr>  <chr>  
 1 1     0           libm…          1 6 to 10     secon… VA       South  US     
 2 2     0           clas…          1 6 to 10     secon… FL       South  US     
 3 3     0           dist…          2 11 to 20    gener… PA       North… US     
 4 4     0           clas…          2 11 to 20    middle NC       South  US     
 5 5     0           othe…          3 20+         gener… AL       South  US     
 6 6     0           clas…          1 4 to 5      gener… AL       South  US     
 7 7     0           inst…          2 11 to 20    gener… SD       Midwe… US     
 8 8     0           spec…          1 6 to 10     secon… BE       Inter… BE     
 9 9     0           clas…          1 6 to 10     middle NC       South  US     
10 10    0           scho…          2 11 to 20    middle NC       South  US     
# ℹ 435 more rows
# ℹ 5 more variables: group <chr>, gender <chr>, expert <chr>, connect <chr>,
#   in_degree <dbl>
…
