Groups, Positions, & Egocentric Analysis
…
]

.panel[.panel-name[View Network]
Let's take a look at our network now. 

```r
ccss_network
```

```
## # A tbl_graph: 92 nodes and 289 edges
## #
## # A directed multigraph with 13 components
## #
## # A tibble: 92 × 3
##   actors          in_degree out_degree
##   <chr>               <dbl>      <dbl>
## 1 AlexiosAsText           0          1
## 2 MaggieEThornton         1          0
## 3 tx_granny               0          4
## 4 BanjoTanJoe             1          3
## 5 MillennialOther         2          0
## 6 Richard_Harambe         2          0
## # ℹ 86 more rows
## #
## # A tibble: 289 × 4
##    from    to created_at          text                                          
##   <int> <int> <dttm>              <chr>                                         
## 1     1     2 2021-11-07 15:22:14 @MaggieEThornton If enough were gathered coul…
## 2     3     4 2021-11-06 19:29:41 @MillennialOther @Richard_Harambe @RepMikeJoh…
## 3     3     5 2021-11-06 19:29:41 @MillennialOther @Richard_Harambe @RepMikeJoh…
## # ℹ 286 more rows
```
…
