Components, Cliques, and Key-Actors
…
ccss_network <- ccss_network |>
  activate(nodes) |>
  mutate(in_degree = centrality_degree(mode = "in"),
         out_degree = centrality_degree(mode = "out"))

Let’s take a look at our network now.

ccss_network

# A tbl_graph: 92 nodes and 289 edges
#
# A directed multigraph with 13 components
#
# A tibble: 92 × 3
  actors          in_degree out_degree
  <chr>               <dbl>      <dbl>
1 AlexiosAsText           0          1
2 MaggieEThornton         1          0
3 tx_granny               0          4
4 BanjoTanJoe             1          3
5 MillennialOther         2          0
6 Richard_Harambe         2          0
# ℹ 86 more rows
#
# A tibble: 289 × 4
   from    to created_at          text                                          
  <int> <int> <dttm>              <chr>                                         
1     1     2 2021-11-07 15:22:14 @MaggieEThornton If enough were gathered coul…
2     3     4 2021-11-06 19:29:41 @MillennialOther @Richard_Harambe @RepMikeJoh…
3     3     5 2021-11-06 19:29:41 @MillennialOther @Richard_Harambe @RepMikeJoh…
# ℹ 286 more rows
…
# YOUR TURN
#
#

💡Hint: Consider using the activate() function again along with standard {dpylr} functions for arranging columns by order.

ccss_network |>
  activate(nodes) |>
  arrange(desc(out_degree))

# A tbl_graph: 92 nodes and 289 edges
#
# A directed multigraph with 13 components
#
# A tibble: 92 × 3
  actors          in_degree out_degree
  <chr>               <dbl>      <dbl>
1 rdsathene               0        246
2 waltduro                0          7
3 mindfuldesserts         0          6
4 tx_granny               0          4
5 namaikatikura           0          4
6 BanjoTanJoe             1          3
# ℹ 86 more rows
#
# A tibble: 289 × 4
   from    to created_at          text                                          
  <int> <int> <dttm>              <chr>                                         
1    13    18 2021-11-07 15:22:14 @MaggieEThornton If enough were gathered coul…
2     4     6 2021-11-06 19:29:41 @MillennialOther @Richard_Harambe @RepMikeJoh…
3     4    19 2021-11-06 19:29:41 @MillennialOther @Richard_Harambe @RepMikeJoh…
# ℹ 286 more rows
…
